Pour aller plus loin avec R et RStudio
…
class(Wine)

[1] "data.frame"

has_rownames(Wine)

[1] TRUE

Wine.tbl = as_tibble(rownames_to_column(Wine))
Wine.tbl

# A tibble: 600 × 9
   rowname Qualite  Type AcidVol AcidCitr SO2lbr SO2tot Densite Alcool
   <chr>   <chr>   <int>   <dbl>    <dbl>  <dbl>  <int>   <dbl>  <dbl>
 1 1352    medium      1    0.62     0.01      8     46   0.993   11.8
 2 5493    medium      0    0.34     0.1      17     63   0.994    9.2
 3 5153    medium      0    0.22     0.22     39    110   0.999    9  
 4 5308    medium      0    0.35     0.46     61    183   0.998    9  
 5 3866    medium      0    0.42     0.32     20    167   0.995   10.6
 6 694     medium      1    0.48     0.32     21    122   0.998    9.4
 7 5085    good        0    0.21     0.32     39    113   0.994   10.2
 8 2280    medium      0    0.28     0.14     64    159   0.992   10  
 9 5231    medium      0    0.3      0.25     21    124   0.994   10.8
10 4388    medium      0    0.4      0.42     41    176   0.996    9.4
# … with 590 more rows
…
# A tibble: 1 × 9
  rowname Qualite  Type AcidVol AcidCitr SO2lbr SO2tot Densite Alcool
  <chr>   <chr>   <int>   <dbl>    <dbl>  <dbl>  <int>   <dbl>  <dbl>
1 6420    medium      0    0.36      0.5     63    178   0.992    9.7

filter()

La fonction filter() filtre les lignes d’une table selon une condition. Seules les lignes pour lesquelles le test renvoie TRUE sont conservées.

Par exemple, si on veut ne conserver que les vins de Qualité “medium” :

filter(Wine.tbl, Qualite == "medium")

# A tibble: 471 × 9
   rowname Qualite  Type AcidVol AcidCitr SO2lbr SO2tot Densite Alcool
   <chr>   <chr>   <int>   <dbl>    <dbl>  <dbl>  <int>   <dbl>  <dbl>
 1 1352    medium      1    0.62     0.01      8     46   0.993   11.8
 2 5493    medium      0    0.34     0.1      17     63   0.994    9.2
 3 5153    medium      0    0.22     0.22     39    110   0.999    9  
 4 5308    medium      0    0.35     0.46     61    183   0.998    9  
 5 3866    medium      0    0.42     0.32     20    167   0.995   10.6
 6 694     medium      1    0.48     0.32     21    122   0.998    9.4
 7 2280    medium      0    0.28     0.14     64    159   0.992   10  
 8 5231    medium      0    0.3      0.25     21    124   0.994   10.8
 9 4388    medium      0    0.4      0.42     41    176   0.996    9.4
10 4172    medium      0    0.14     0.28     10     56   0.994    9.9
# … with 461 more rows

Si on veut ne conserver que les vins avec au moins 11 degrés d’alcool et une teneur en acide volatile de moins de 0.3 :

filter(Wine.tbl, Alcool >= 11 & AcidVol < 0.3)

# A tibble: 99 × 9
   rowname Qualite  Type AcidVol AcidCitr SO2lbr SO2tot Densite Alcool
   <chr>   <chr>   <int>   <dbl>    <dbl>  <dbl>  <int>   <dbl>  <dbl>
 1 2155    good        0    0.25     0.34     31     93   0.992   11.3
 2 2258    medium      0    0.27     0.25     41    188   0.992   11.3
 3 4560    good        0    0.11     0.34     41    114   0.996   11  
 4 5430    good        0    0.26     0.23     23    111   0.993   11.5
 5 6496    good        0    0.29     0.3      20    110   0.989   12.8
 6 3046    medium      0    0.27     0.49     35     92   0.991   12.2
 7 4690    medium      0    0.17     0.35     33     78   0.991   11.3
 8 4799    good        0    0.21     0.4      40    121   0.992   12  
 9 5167    medium      0    0.26     0.27     20     80   0.991   11.5
10 5291    medium      0    0.22     0.26     23    112   0.993   11.4
# … with 89 more rows

Si on veut filtrer les vins ayant un taux d’alcool entre 10.5 et 11 :

filter(Wine.tbl, between(Alcool, 10.5, 11))

# A tibble: 94 × 9
   rowname Qualite  Type AcidVol AcidCitr SO2lbr SO2tot Densite Alcool
   <chr>   <chr>   <int>   <dbl>    <dbl>  <dbl>  <int>   <dbl>  <dbl>
 1 3866    medium      0    0.42     0.32     20    167   0.995   10.6
 2 5231    medium      0    0.3      0.25     21    124   0.994   10.8
 3 4560    good        0    0.11     0.34     41    114   0.996   11  
 4 3615    medium      0    0.19     0.39     22     84   0.994   10.8
 5 2983    medium      0    0.36     0.56     25    102   0.992   10.5
 6 6347    medium      0    0.26     0.5      25     93   0.994   10.5
 7 3003    good        0    0.26     0.31     29    128   0.994   10.9
 8 1291    medium      1    0.74     0         6     12   0.995   11  
 9 1350    medium      1    0.57     0        21     41   0.995   10.8
10 6336    medium      0    0.16     0.36     13     61   0.991   10.8
# … with 84 more rows

select()

La fonction select() permet de sélectionner des colonnes d’une table. Nous donnons quelques exemples ci-dessous. On renvoie à l’aide ?select pour voir les options disponibles pour sélectionner plusieurs colonnes, sélectionner selon une condition sur les noms, … On peut aussi utiliser la fonction rename() (voir l’aide.)

Dans notre exemple, si on veut récupérer les variables Alcool et Qualite

select(Wine.tbl, Alcool, Qualite)

# A tibble: 600 × 2
   Alcool Qualite
    <dbl> <chr>  
 1   11.8 medium 
 2    9.2 medium 
 3    9   medium 
 4    9   medium 
 5   10.6 medium 
 6    9.4 medium 
 7   10.2 good   
 8   10   medium 
 9   10.8 medium 
10    9.4 medium 
# … with 590 more rows

Si on veut éliminer les variables AcidVol et SO2tot :

select(Wine.tbl, -AcidVol, -SO2tot)

# A tibble: 600 × 7
   rowname Qualite  Type AcidCitr SO2lbr Densite Alcool
   <chr>   <chr>   <int>    <dbl>  <dbl>   <dbl>  <dbl>
 1 1352    medium      1     0.01      8   0.993   11.8
 2 5493    medium      0     0.1      17   0.994    9.2
 3 5153    medium      0     0.22     39   0.999    9  
 4 5308    medium      0     0.46     61   0.998    9  
 5 3866    medium      0     0.32     20   0.995   10.6
 6 694     medium      1     0.32     21   0.998    9.4
 7 5085    good        0     0.32     39   0.994   10.2
 8 2280    medium      0     0.14     64   0.992   10  
 9 5231    medium      0     0.25     21   0.994   10.8
10 4388    medium      0     0.42     41   0.996    9.4
# … with 590 more rows

Si on veut récupérer les colonnes dont le nom commence par Acid

select(Wine.tbl, starts_with("Acid"))

# A tibble: 600 × 2
   AcidVol AcidCitr
     <dbl>    <dbl>
 1    0.62     0.01
 2    0.34     0.1 
 3    0.22     0.22
 4    0.35     0.46
 5    0.42     0.32
 6    0.48     0.32
 7    0.21     0.32
 8    0.28     0.14
 9    0.3      0.25
10    0.4      0.42
# … with 590 more rows

Si on veut récupérer les colonnes qui contiennent Acid :

select(Wine.tbl, contains("Acid"))

# A tibble: 600 × 2
   AcidVol AcidCitr
     <dbl>    <dbl>
 1    0.62     0.01
 2    0.34     0.1 
 3    0.22     0.22
 4    0.35     0.46
 5    0.42     0.32
 6    0.48     0.32
 7    0.21     0.32
 8    0.28     0.14
 9    0.3      0.25
10    0.4      0.42
# … with 590 more rows

arrange()

La fonction `arrange() permet de réordonner les lignes du jeu de données en fonction d’une ou plusieurs variables.

Par exemple, pour ordonner les lignes de Wine en fonction des valeurs de la variable Alcool

arrange(Wine.tbl, Alcool)

# A tibble: 600 × 9
   rowname Qualite  Type AcidVol AcidCitr SO2lbr SO2tot Densite Alcool
   <chr>   <chr>   <int>   <dbl>    <dbl>  <dbl>  <int>   <dbl>  <dbl>
 1 4225    medium      0    0.19     0.21     89    159   0.993    8  
 2 3185    medium      0    0.3      0.74     46    165   0.998    8.7
 3 2830    medium      0    0.29     0.3      46    238   0.999    8.7
 4 5650    good        0    0.16     0.27     25    135   0.998    8.7
 5 5278    medium      0    0.23     0.25     19    111   1.00     8.7
 6 1741    medium      0    0.37     0.67     49    155   0.998    8.7
 7 1684    medium      0    0.43     0.61     54    155   0.997    8.7
 8 1737    medium      0    0.37     0.67     49    155   0.998    8.7
 9 3258    medium      0    0.31     0.49     52    220   0.996    8.8
10 1477    medium      1    0.5      0.5      48     82   1.00     8.8
# … with 590 more rows

Pour trier par ordre décroissant, on utilise la fonction desc()

arrange(Wine.tbl, desc(Alcool))

# A tibble: 600 × 9
   rowname Qualite  Type AcidVol AcidCitr SO2lbr SO2tot Densite Alcool
   <chr>   <chr>   <int>   <dbl>    <dbl>  <dbl>  <int>   <dbl>  <dbl>
 1 5504    good        0   0.455     0.18     33    106   0.987   14  
 2 6389    medium      0   0.62      0.33     24    118   0.988   13.6
 3 5729    good        0   0.34      0.31     18     68   0.990   13.4
 4 5103    good        0   0.33      0.31     21     93   0.990   13.4
 5 5795    good        0   0.45      0.24     24     87   0.989   13.4
 6 492     good        1   0.41      0.5      12     25   0.995   13.3
 7 4973    good        0   0.28      0.24     49    121   0.989   13.2
 8 6437    medium      0   0.28      0.38     54    216   0.992   13.1
 9 5099    good        0   0.33      0.3      30    124   0.989   13.1
10 1288    medium      1   0.6       0.08      3      7   0.993   13  
# … with 590 more rows

Pour trier selon les deux variables Qualite et Alcool :

arrange(Wine.tbl, Qualite, Alcool)

# A tibble: 600 × 9
   rowname Qualite  Type AcidVol AcidCitr SO2lbr SO2tot Densite Alcool
   <chr>   <chr>   <int>   <dbl>    <dbl>  <dbl>  <int>   <dbl>  <dbl>
 1 5812    bad         0    0.31     0.37     13    164   0.996    8.8
 2 3937    bad         0    0.28     0.35     61    180   0.997    9  
 3 460     bad         1    0.58     0.66     10     47   1.00     9  
 4 2226    bad         0    0.56     0.12     22    177   0.998    9.1
 5 2262    bad         0    0.57     0.1      23    188   0.997    9.2
 6 4131    bad         0    0.54     0.27      8    178   0.995    9.4
 7 3074    bad         0    0.25     0.24     13     85   0.994    9.5
 8 1646    bad         0    0.45     0.26     63    206   0.994    9.8
 9 4000    bad         0    0.19     0.42     16    104   0.995   10  
10 4001    bad         0    0.16     0.49     18    107   0.995   10.2
# … with 590 more rows

On peut remarquer que l’on obtient le même résultat avec la commande

Wine.tbl %>%
    arrange(Qualite, Alcool)

# A tibble: 600 × 9
   rowname Qualite  Type AcidVol AcidCitr SO2lbr SO2tot Densite Alcool
   <chr>   <chr>   <int>   <dbl>    <dbl>  <dbl>  <int>   <dbl>  <dbl>
 1 5812    bad         0    0.31     0.37     13    164   0.996    8.8
 2 3937    bad         0    0.28     0.35     61    180   0.997    9  
 3 460     bad         1    0.58     0.66     10     47   1.00     9  
 4 2226    bad         0    0.56     0.12     22    177   0.998    9.1
 5 2262    bad         0    0.57     0.1      23    188   0.997    9.2
 6 4131    bad         0    0.54     0.27      8    178   0.995    9.4
 7 3074    bad         0    0.25     0.24     13     85   0.994    9.5
 8 1646    bad         0    0.45     0.26     63    206   0.994    9.8
 9 4000    bad         0    0.19     0.42     16    104   0.995   10  
10 4001    bad         0    0.16     0.49     18    107   0.995   10.2
# … with 590 more rows

Cette commande pipe %>% est importante dans dplyr.

Le pipe %>%

On est souvent amené à enchaîner plusieurs opérations sur un tableau. Par exemple,

arrange(select(filter(Wine.tbl, Alcool >= 11), Qualite, Alcool), Qualite)

# A tibble: 205 × 2
   Qualite Alcool
   <chr>    <dbl>
 1 bad       11.5
 2 bad       11.6
 3 bad       11.5
 4 bad       11.2
 5 bad       11.2
 6 good      12.7
 7 good      11.3
 8 good      11  
 9 good      11.5
10 good      12.8
# … with 195 more rows

mais cet enchainement de fonctions est peu lisible. On peut améliorer la lisibilité du code en utilisant le pipe, noté %>%. Si on execute `expr%>%f, le résultat de expr est passé comme premier argument de la fonction f, ce qui revient à executer f(expr). Ainsi notre exemple précédent peut se réécrire avec le code suivant :

Wine.tbl %>%
    filter(Alcool >= 11) %>%
    select(Qualite, Alcool) %>%
    arrange(Qualite)

# A tibble: 205 × 2
   Qualite Alcool
   <chr>    <dbl>
 1 bad       11.5
 2 bad       11.6
 3 bad       11.5
 4 bad       11.2
 5 bad       11.2
 6 good      12.7
 7 good      11.3
 8 good      11  
 9 good      11.5
10 good      12.8
# … with 195 more rows
…
                                 n    % val%
Autre                          413 68.8 68.8
vins blancs de degré sup. à 11 142 23.7 23.7
vins rouges de degré sup. à 11  45  7.5  7.5

group_by()

La fonction group_by() permet de créer des groupes de lignes à partir des valeurs d’une ou plusieurs variables. Par exemple on peut regrouper les vins selon leur qualité :

Wine.tbl %>%
    group_by(Qualite)

# A tibble: 600 × 9
# Groups:   Qualite [3]
   rowname Qualite  Type AcidVol AcidCitr SO2lbr SO2tot Densite Alcool
   <chr>   <chr>   <int>   <dbl>    <dbl>  <dbl>  <int>   <dbl>  <dbl>
 1 1352    medium      1    0.62     0.01      8     46   0.993   11.8
 2 5493    medium      0    0.34     0.1      17     63   0.994    9.2
 3 5153    medium      0    0.22     0.22     39    110   0.999    9  
 4 5308    medium      0    0.35     0.46     61    183   0.998    9  
 5 3866    medium      0    0.42     0.32     20    167   0.995   10.6
 6 694     medium      1    0.48     0.32     21    122   0.998    9.4
 7 5085    good        0    0.21     0.32     39    113   0.994   10.2
 8 2280    medium      0    0.28     0.14     64    159   0.992   10  
 9 5231    medium      0    0.3      0.25     21    124   0.994   10.8
10 4388    medium      0    0.4      0.42     41    176   0.996    9.4
# … with 590 more rows

Dans l’affichage, on voit apparaitre “Groups” dans les premières lignes, le reste n’a pas changé. Mais une fois les groupes créés, ils peuvent être utilisés dans les différentes fonctions de dplyr SAUF pour arrange().

Si on veut grouper selon plusieurs variables, il suffit de les passer en argument de group_by():

Wine.tbl %>%
    group_by(Qualite, Type)

# A tibble: 600 × 9
# Groups:   Qualite, Type [6]
   rowname Qualite  Type AcidVol AcidCitr SO2lbr SO2tot Densite Alcool
   <chr>   <chr>   <int>   <dbl>    <dbl>  <dbl>  <int>   <dbl>  <dbl>
 1 1352    medium      1    0.62     0.01      8     46   0.993   11.8
 2 5493    medium      0    0.34     0.1      17     63   0.994    9.2
 3 5153    medium      0    0.22     0.22     39    110   0.999    9  
 4 5308    medium      0    0.35     0.46     61    183   0.998    9  
 5 3866    medium      0    0.42     0.32     20    167   0.995   10.6
 6 694     medium      1    0.48     0.32     21    122   0.998    9.4
 7 5085    good        0    0.21     0.32     39    113   0.994   10.2
 8 2280    medium      0    0.28     0.14     64    159   0.992   10  
 9 5231    medium      0    0.3      0.25     21    124   0.994   10.8
10 4388    medium      0    0.4      0.42     41    176   0.996    9.4
# … with 590 more rows
…
# A tibble: 3 × 2
  Qualite     n
  <chr>   <int>
1 bad        19
2 good      110
3 medium    471

mutate() / transmute()

mutate() permet de créer de nouvelles variables (colonnes) dans le tableau en conservant toutes les autres variables existantes. Par exemple, si on convertit la densité, qui est donnée en g/cm3, en mg/cm3 :

Wine.tbl = mutate(Wine.tbl, densmg = 1000 * Densite)
select(Wine.tbl, Densite, densmg)

# A tibble: 600 × 2
   Densite densmg
     <dbl>  <dbl>
 1   0.993   993.
 2   0.994   994.
 3   0.999   999.
 4   0.998   998.
 5   0.995   995.
 6   0.998   998.
 7   0.994   994.
 8   0.992   992 
 9   0.994   994.
10   0.996   996.
# … with 590 more rows
…
